<?xml version="1.0" encoding="utf-8"?>
<!-- Generator: Adobe Illustrator 18.1.1, SVG Export Plug-In . SVG Version: 6.00 Build 0)  -->
<svg version="1.1" id="Layer_1" xmlns="http://www.w3.org/2000/svg" xmlns:xlink="http://www.w3.org/1999/xlink" x="0px" y="0px"
	 viewBox="0 0 100 100" enable-background="new 0 0 100 100" xml:space="preserve">
<path fill="#231F20" d="M97.9,95.1L61,58.2c5.4-6,8.6-13.9,8.6-22.6c0-18.8-15.3-34.1-34.1-34.1S1.5,16.8,1.5,35.6
	c0,18.8,15.3,34.1,34.1,34.1c8.7,0,16.6-3.3,22.6-8.6l36.9,36.9c0.4,0.4,0.9,0.6,1.4,0.6s1-0.2,1.4-0.6
	C98.7,97.1,98.7,95.9,97.9,95.1z M5.5,35.6C5.5,19,19,5.5,35.6,5.5S65.6,19,65.6,35.6S52.1,65.6,35.6,65.6S5.5,52.1,5.5,35.6z"/>
</svg>
