<?xml version="1.0" encoding="utf-8"?>
<!-- Generator: Adobe Illustrator 18.1.1, SVG Export Plug-In . SVG Version: 6.00 Build 0)  -->
<svg version="1.1" id="Layer_1" xmlns="http://www.w3.org/2000/svg" xmlns:xlink="http://www.w3.org/1999/xlink" x="0px" y="0px"
	 viewBox="0 0 100 100" enable-background="new 0 0 100 100" xml:space="preserve">
<g>
	<path fill="#010101" d="M91.7,30.7c-4.1-3.9-9.3-6.1-14.9-6.2C71.6,14.7,61.2,8.4,50,8.4c-15.3,0-28.1,11.4-30,26.3
		c-4.4-0.3-8.7,1-12.2,3.8c-4,3.3-6.3,8.1-6.3,13.3c0,5,1.5,9,4.6,11.8c4.5,4.2,10.8,4.6,13,4.6c0.3,0,0.6,0,0.7,0h8
		c1.1,0,2-0.9,2-2s-0.9-2-2-2h-8.1l-0.1,0c-0.1,0-6.6,0.4-10.7-3.5c-2.2-2.1-3.3-5.1-3.3-8.9c0-4,1.8-7.7,4.9-10.2
		c3.1-2.5,7.1-3.5,11-2.7l2.3,0.5l0.1-2.3C24.6,23.2,36.1,12.4,50,12.4c10.1,0,19.4,5.9,23.7,15.1l0.6,1.2l1.3,0
		c5-0.2,9.7,1.6,13.3,5.1c3.6,3.5,5.6,8.1,5.6,13.1c0,15.4-14.9,17.3-16.3,17.4h-6.1c-1.1,0-2,0.9-2,2s0.9,2,2,2h6.2l0.2,0
		c0.2,0,20-2,20-21.4C98.5,40.7,96.1,35,91.7,30.7z"/>
	<path fill="#010101" d="M62.4,74.8l-10,10V47.1c0-1.1-0.9-2-2-2s-2,0.9-2,2v37.7l-10-10c-0.8-0.8-2-0.8-2.8,0c-0.8,0.8-0.8,2,0,2.8
		L49,91.1c0.1,0.1,0.2,0.2,0.3,0.2c0,0,0.1,0,0.1,0c0.1,0.1,0.2,0.1,0.3,0.1c0,0,0.1,0,0.1,0c0.1,0,0.2,0.1,0.3,0.1
		c0.1,0,0.3,0,0.4,0s0.3,0,0.4,0c0.1,0,0.2,0,0.3-0.1c0,0,0.1,0,0.1,0c0.1,0,0.2-0.1,0.3-0.1c0,0,0.1,0,0.1,0
		c0.1-0.1,0.2-0.2,0.3-0.2l13.4-13.4c0.8-0.8,0.8-2,0-2.8S63.2,74,62.4,74.8z"/>
</g>
</svg>
