<?xml version="1.0" encoding="utf-8"?>
<!-- Generator: Adobe Illustrator 18.1.1, SVG Export Plug-In . SVG Version: 6.00 Build 0)  -->
<svg version="1.1" id="Layer_1" xmlns="http://www.w3.org/2000/svg" xmlns:xlink="http://www.w3.org/1999/xlink" x="0px" y="0px"
	 viewBox="0 0 100 100" enable-background="new 0 0 100 100" xml:space="preserve">
<path d="M50,1C23.3,1,1.5,22.8,1.5,49.5c0,12.9,5,25,14,34.1C24.7,92.9,37,98,50,98c13.1,0,25.3-5.1,34.5-14.4
	c9-9.1,14-21.2,14-34.1C98.5,22.8,76.7,1,50,1z M50,5c24.5,0,44.5,20,44.5,44.5c0,11.2-4.1,21.8-11.7,30.1
	c-4.2-2.5-10.5-4.8-17.5-7.3c-1.7-0.6-3.4-1.2-5.2-1.9v-7.5c2-1.2,5.6-4.5,6-11.9c1.6-0.9,2.5-2.9,2.5-5.5c0-2.3-0.8-4.2-2.1-5.2
	c1-3.1,2.8-8.7,1.6-13.5c-1.4-5.6-9-7.6-15.1-7.6c-5.4,0-12.1,1.6-14.4,5.9c-2.8-0.1-4.4,1.1-5.2,2.1c-2.6,3.4-0.9,9.6,0.1,13
	c-1.3,1-2.1,2.9-2.1,5.3c0,2.6,1,4.6,2.5,5.5c0.4,7.4,4,10.6,6,11.9v7.5c-1.6,0.6-3.2,1.2-4.8,1.7c-6.6,2.4-13.4,4.8-17.9,7.5
	C9.7,71.4,5.5,60.7,5.5,49.5C5.5,25,25.5,5,50,5z M20.2,82.5c4.2-2.3,10.3-4.5,16.3-6.7c2.1-0.8,4.1-1.5,6.1-2.2
	c0.8-0.3,1.3-1,1.3-1.9V61.6c0-0.8-0.6-1.6-1.3-1.9c-0.2-0.1-4.7-1.9-4.7-10.2c0-1.1-0.8-2-1.9-2c-0.1-0.1-0.6-0.8-0.6-2.1
	s0.4-2,0.5-2c1.1,0,2-0.9,2-2c0-0.5-0.1-1-0.5-2.2c-0.6-2.1-2.2-7.7-0.8-9.6c0.1-0.2,0.4-0.6,1.6-0.6c0.4,0,0.8,0.1,1.3,0.2
	c1.1,0.2,2.1-0.4,2.3-1.5c0.7-2.6,5.4-4.6,11.2-4.6s10.5,1.9,11.2,4.6c0.9,3.7-0.7,8.9-1.5,11.3c-0.4,1.2-0.6,1.8-0.6,2.3
	c0,1.1,0.8,2,1.9,2c0.1,0.1,0.6,0.8,0.6,2.1s-0.4,2-0.5,2c-1.1,0-2,0.9-2,2c0,8.4-4.5,10.2-4.7,10.2c-0.8,0.3-1.4,1-1.4,1.9v10.1
	c0,0.8,0.5,1.6,1.3,1.9c2.2,0.8,4.4,1.6,6.5,2.4c6.1,2.2,12,4.3,15.9,6.5C71.6,89.9,61.1,94,50,94C38.9,94,28.4,89.9,20.2,82.5z"/>
</svg>
