<?xml version="1.0" encoding="utf-8"?>
<!-- Generator: Adobe Illustrator 18.1.1, SVG Export Plug-In . SVG Version: 6.00 Build 0)  -->
<svg version="1.1" id="Layer_1" xmlns="http://www.w3.org/2000/svg" xmlns:xlink="http://www.w3.org/1999/xlink" x="0px" y="0px"
	 viewBox="0 0 960 560" enable-background="new 0 0 960 560" xml:space="preserve">
<path fill="#231F20" d="M732.4,132.7c0,2.8-1.1,6.2-2.8,8.4L498.9,434.6l-0.6,0.6c-5.6,6.7-14.6,10.6-23,10.6
	c-9,0-17.4-3.9-23.5-10.6l-0.6-0.6L221.1,141.1c-5-6.2-3.9-15.1,2.2-19.6c6.2-5,15.1-3.9,19.6,2.2l230.2,292.9
	c0.6,0.6,1.7,0.6,1.7,0.6c0.6,0,1.1,0,2.2-0.6l230.2-292.9c5-6.2,13.4-7.3,19.6-2.2C730.1,124.3,732.4,128.2,732.4,132.7z"/>
</svg>
