<?xml version="1.0" encoding="utf-8"?>
<!-- Generator: Adobe Illustrator 18.1.1, SVG Export Plug-In . SVG Version: 6.00 Build 0)  -->
<svg version="1.1" id="Layer_1" xmlns="http://www.w3.org/2000/svg" xmlns:xlink="http://www.w3.org/1999/xlink" x="0px" y="0px"
	 viewBox="0 0 100 100" enable-background="new 0 0 100 100" xml:space="preserve">
<g>
	<path fill="#231F20" d="M50,1.5C23.3,1.5,1.5,23.3,1.5,50S23.3,98.5,50,98.5S98.5,76.7,98.5,50S76.7,1.5,50,1.5z M50,94.5
		c-24.5,0-44.5-20-44.5-44.5S25.5,5.5,50,5.5s44.5,20,44.5,44.5S74.5,94.5,50,94.5z"/>
	<path fill="#231F20" d="M59.5,31c-4.3,0-7.6,3-9.4,5.3c-1.8-2.3-4.9-5.2-9.1-5.2c-5.4,0-10.8,4.6-10.8,13.3
		c0,15.2,18.3,24.1,19.1,24.4c0.3,0.1,0.6,0.2,0.9,0.2c0.4,0,0.7-0.1,1-0.3c0.8-0.5,18.9-11.2,18.9-25.4C69.9,35.2,64.7,31,59.5,31z
		 M49.9,64.7c-3.6-1.9-15.8-9.4-15.8-20.3c0-6.4,3.5-9.3,6.8-9.3c4.3,0,7.3,5.6,7.3,5.7c0.3,0.7,1,1.1,1.8,1.1c0,0,0,0,0,0
		c0.7,0,1.4-0.4,1.8-1c0-0.1,3.3-5.8,7.7-5.8c3.1,0,6.5,2.6,6.5,8.4C65.9,53.6,53.4,62.4,49.9,64.7z"/>
</g>
</svg>
