<?xml version="1.0" encoding="utf-8"?>
<!-- Generator: Adobe Illustrator 18.1.1, SVG Export Plug-In . SVG Version: 6.00 Build 0)  -->
<svg version="1.1" id="Layer_1" xmlns="http://www.w3.org/2000/svg" xmlns:xlink="http://www.w3.org/1999/xlink" x="0px" y="0px"
	 viewBox="0 0 100 100" enable-background="new 0 0 100 100" xml:space="preserve">
<path fill="#231F20" d="M98.4,27.4c0,0,0-0.1,0-0.1c0-0.1,0-0.2-0.1-0.4c0,0,0-0.1,0-0.1c0-0.1-0.1-0.3-0.2-0.4c0,0,0,0,0,0
	l-9.6-14.7c-0.4-0.6-1-0.9-1.7-0.9H13c-0.7,0-1.3,0.3-1.7,0.9L1.7,26.4c0,0,0,0,0,0c-0.1,0.1-0.1,0.3-0.2,0.4c0,0,0,0.1,0,0.1
	c0,0.1-0.1,0.2-0.1,0.4c0,0,0,0.1,0,0.1c0,0,0,0,0,0v2.9c0,6.4,4,11.7,9.6,13.3v45.6c0,1.1,0.9,2,2,2h28.4h16.8h28.6
	c1.1,0,2-0.9,2-2V43.2c5.4-2.1,9.6-7.2,9.6-12.8L98.4,27.4C98.4,27.4,98.4,27.4,98.4,27.4z M92.7,25.5H75.4l-3.5-10.7h13.8
	L92.7,25.5z M72,38.5c-2.4,3.1-5.7,4.6-10.8,4.6c-4.5,0-8.5-1.2-10.8-3.3V29.5H72V38.5z M27.9,29.5h18.4v10.4
	c-2.4,2.3-5.2,3.3-9.2,3.3c-5,0-7-1.4-9.2-4.5V29.5z M46.3,14.7v10.7H28.6l3.5-10.7H46.3z M67.7,14.7l3.5,10.7H50.3V14.7H67.7z
	 M14.1,14.7h13.8l-3.5,10.7H7.1L14.1,14.7z M5.4,30.4v-0.9h18.4v8.8c-2,1.2-6.2,2-9.2,2C8.9,40.2,5.4,35.2,5.4,30.4z M43.5,87.3
	V57.9h12.8v29.4H43.5z M84.8,87.3H60.2V55.9c0-1.1-0.9-2-2-2H41.5c-1.1,0-2,0.9-2,2v31.4H15V44.2c2.3-0.1,7.1-0.5,10.3-2.2
	c3.1,3.8,6.3,5.2,11.7,5.2c4.7,0,8.2-1.2,11.3-3.7c3.1,2.4,7.7,3.7,12.8,3.7c5.8,0,10.1-1.7,13.2-5.1c2.8,1.6,6.4,2.2,9.2,2.2
	c0.4,0,0.8,0,1.2-0.1V87.3z M94.4,30.4c0,5-5.3,9.8-10.8,9.8c-2.9,0-5.9-0.8-7.6-1.9v-8.8h18.4V30.4z"/>
</svg>
