<?xml version="1.0" encoding="utf-8"?>
<!-- Generator: Adobe Illustrator 18.1.1, SVG Export Plug-In . SVG Version: 6.00 Build 0)  -->
<svg version="1.1" id="Layer_1" xmlns="http://www.w3.org/2000/svg" xmlns:xlink="http://www.w3.org/1999/xlink" x="0px" y="0px"
	 viewBox="0 0 100 100" enable-background="new 0 0 100 100" xml:space="preserve">
<path d="M72.7,7.3c-11.2,0-19.2,9.6-22.7,14.6C46.8,17,39.1,7.6,28.2,7.6c-6.1,0-11.8,2.7-16.1,7.5c-4.6,5.3-7.1,12.7-7.1,21.5
	c0,14.4,7.7,28.7,22.2,41.3C38,87.2,48.7,92.3,49.1,92.5c0.3,0.1,0.6,0.2,0.9,0.2c0.4,0,0.7-0.1,1-0.3c0.4-0.3,11.1-6.5,21.8-16.8
	c14.4-13.8,22.1-28.1,22.1-41.5C94.9,16.5,83.7,7.3,72.7,7.3z M49.9,88.4C43.7,85.2,9.1,66,9.1,36.5c0-17.2,9.9-25,19.1-25
	c12,0,19.9,14.9,20,15.1c0.3,0.7,1,1.1,1.8,1.1c0.7,0,1.4-0.4,1.8-1c0.1-0.2,8.6-15.4,20.9-15.4c12,0,18.2,11.5,18.2,22.8
	C90.9,61.6,56,84.6,49.9,88.4z"/>
</svg>
