<?xml version="1.0" encoding="utf-8"?>
<!-- Generator: Adobe Illustrator 18.1.1, SVG Export Plug-In . SVG Version: 6.00 Build 0)  -->
<svg version="1.1" id="Layer_1" xmlns="http://www.w3.org/2000/svg" xmlns:xlink="http://www.w3.org/1999/xlink" x="0px" y="0px"
	 viewBox="0 0 100 100" enable-background="new 0 0 100 100" xml:space="preserve">
<g>
	<path fill="#010101" d="M50,4.5c-17.6,0-32,14.4-32,32c0,17,29.2,56.5,30.4,58.2c0.4,0.5,1,0.8,1.6,0.8s1.2-0.3,1.6-0.8
		C52.8,93,82,53.5,82,36.5C82,18.9,67.6,4.5,50,4.5z M50,90.1c-6.2-8.6-28-40-28-53.6c0-15.4,12.6-28,28-28s28,12.6,28,28
		C78,50.1,56.2,81.5,50,90.1z"/>
	<path fill="#010101" d="M50,22.5c-7.7,0-14,6.3-14,14s6.3,14,14,14s14-6.3,14-14S57.7,22.5,50,22.5z M50,46.5c-5.5,0-10-4.5-10-10
		s4.5-10,10-10s10,4.5,10,10S55.5,46.5,50,46.5z"/>
</g>
</svg>
